float a = 0, b = 0, c = 0;

int gcd(int m, int n) {

int res = 0;
if (m!=n) { 
    if (m > n) 
        res = gcd(m-n, n);
    else
        res = gcd(n-m, m);
}
else
    res = m;

print res;
return res;
}

int fun2(int arg1, int arg2) {
    int koniec= 20;
    if(arg1>1) {
        koniec = fun2(arg1-1, arg2+1);

    }
    print koniec;
}

repeat
    a = df;
    b=fg;
until(a>b);

while(a >= b ) {
    a = 1/2*(a+b/a);
}
